<?xml version="1.0" encoding="UTF-8" standalone="no"?>
<svg
   width="22"
   height="22"
   version="1.1"
   id="svg2987"
   sodipodi:docname="mintupdate-updates-available.svg"
   inkscape:version="1.2.2 (b0a8486541, 2022-12-01)"
   xmlns:inkscape="http://www.inkscape.org/namespaces/inkscape"
   xmlns:sodipodi="http://sodipodi.sourceforge.net/DTD/sodipodi-0.dtd"
   xmlns="http://www.w3.org/2000/svg"
   xmlns:svg="http://www.w3.org/2000/svg">
  <sodipodi:namedview
     id="namedview2989"
     pagecolor="#ffffff"
     bordercolor="#000000"
     borderopacity="0.25"
     inkscape:showpageshadow="2"
     inkscape:pageopacity="0.0"
     inkscape:pagecheckerboard="0"
     inkscape:deskcolor="#d1d1d1"
     showgrid="false"
     inkscape:zoom="34.045455"
     inkscape:cx="1.0427236"
     inkscape:cy="11.014686"
     inkscape:window-width="1920"
     inkscape:window-height="920"
     inkscape:window-x="0"
     inkscape:window-y="31"
     inkscape:window-maximized="1"
     inkscape:current-layer="svg2987" />
  <defs
     id="defs2981">
    <style
       id="current-color-scheme"
       type="text/css">
   .ColorScheme-Text { color:#ffffff; } .ColorScheme-Highlight { color:#4285f4; }
  </style>
  </defs>
  <path
     d="m10.99 2a9 9 0 0 0-8.99 9 9 9 0 0 0 9 9 9 9 0 0 0 5.035-1.543 3 3 0 0 1-0.035-0.457 3 3 0 0 1 3-3 3 3 0 0 1 0.06 2e-3 9 9 0 0 0 0.94-4.002 9 9 0 0 0-9-9 9 9 0 0 0-0.01 0zm-0.99 4h2v2h-2zm0 4h2v6h-2z"
     class="ColorScheme-Text"
     fill="currentColor"
     id="path2983"
     style="fill:#808080;fill-opacity:1" />
  <circle
     cx="19"
     cy="18"
     r="2"
     class="ColorScheme-Highlight"
     fill="currentColor"
     id="circle2985"
     style="fill:#d20000;fill-opacity:1" />
</svg>
